{
  "data": [
    {
      "bottom": 145,
      "id": 1,
      "left": 679,
      "right": 748,
      "text": "ГБУ",
      "top": 118
    },
    {
      "bottom": 145,
      "id": 2,
      "left": 764,
      "right": 969,
      "text": "Московское",
      "top": 118
    },
    {
      "bottom": 154,
      "id": 3,
      "left": 983,
      "right": 1153,
      "text": "городское",
      "top": 126
    },
    {
      "bottom": 154,
      "id": 4,
      "left": 1168,
      "right": 1256,
      "text": "бюро",
      "top": 117
    },
    {
      "bottom": 145,
      "id": 5,
      "left": 1273,
      "right": 1481,
      "text": "технической",
      "top": 118
    },
    {
      "bottom": 154,
      "id": 6,
      "left": 1497,
      "right": 1771,
      "text": "инвентаризации",
      "top": 126
    },
    {
      "bottom": 214,
      "id": 7,
      "left": 1081,
      "right": 1151,
      "text": "ГБУ",
      "top": 187
    },
    {
      "bottom": 223,
      "id": 8,
      "left": 1167,
      "right": 1370,
      "text": "MocropbTH",
      "top": 187
    },
    {
      "bottom": 336,
      "id": 9,
      "left": 90,
      "right": 192,
      "text": "Адрес:",
      "top": 300
    },
    {
      "bottom": 327,
      "id": 10,
      "left": 221,
      "right": 335,
      "text": "125009,",
      "top": 300
    },
    {
      "bottom": 327,
      "id": 11,
      "left": 359,
      "right": 364,
      "text": "г.",
      "top": 309
    },
    {
      "bottom": 327,
      "id": 12,
      "left": 397,
      "right": 524,
      "text": "Москва.",
      "top": 300
    },
    {
      "bottom": 327,
      "id": 13,
      "left": 549,
      "right": 666,
      "text": "Малый",
      "top": 300
    },
    {
      "bottom": 330,
      "id": 14,
      "left": 682,
      "right": 959,
      "text": "Гнездниковский",
      "top": 300
    },
    {
      "bottom": 336,
      "id": 15,
      "left": 975,
      "right": 1032,
      "text": "иер.,",
      "top": 308
    },
    {
      "bottom": 330,
      "id": 16,
      "left": 1076,
      "right": 1084,
      "text": "д.",
      "top": 309
    },
    {
      "bottom": 327,
      "id": 17,
      "left": 1111,
      "right": 1117,
      "text": "],",
      "top": 300
    },
    {
      "bottom": 336,
      "id": 18,
      "left": 1146,
      "right": 1200,
      "text": "стр.",
      "top": 308
    },
    {
      "bottom": 327,
      "id": 19,
      "left": 1224,
      "right": 1240,
      "text": "7",
      "top": 300
    },
    {
      "bottom": 408,
      "id": 20,
      "left": 89,
      "right": 233,
      "text": "Телефон:",
      "top": 371
    },
    {
      "bottom": 399,
      "id": 21,
      "left": 261,
      "right": 276,
      "text": "8",
      "top": 372
    },
    {
      "bottom": 405,
      "id": 22,
      "left": 291,
      "right": 375,
      "text": "(495)",
      "top": 372
    },
    {
      "bottom": 399,
      "id": 23,
      "left": 389,
      "right": 555,
      "text": "629-02-80",
      "top": 372
    },
    {
      "bottom": 619,
      "id": 24,
      "left": 2276,
      "right": 2338,
      "text": "Crp.",
      "top": 583
    },
    {
      "bottom": 610,
      "id": 25,
      "left": 2365,
      "right": 2371,
      "text": "]",
      "top": 583
    },
    {
      "bottom": 676,
      "id": 26,
      "left": 85,
      "right": 188,
      "text": "Адрес",
      "top": 640
    },
    {
      "bottom": 671,
      "id": 27,
      "left": 202,
      "right": 293,
      "text": "(иное",
      "top": 641
    },
    {
      "bottom": 667,
      "id": 28,
      "left": 307,
      "right": 465,
      "text": "описавзие",
      "top": 648
    },
    {
      "bottom": 673,
      "id": 29,
      "left": 480,
      "right": 780,
      "text": "местоположения}",
      "top": 644
    },
    {
      "bottom": 745,
      "id": 30,
      "left": 86,
      "right": 184,
      "text": "город",
      "top": 717
    },
    {
      "bottom": 743,
      "id": 31,
      "left": 200,
      "right": 347,
      "text": "Москва,",
      "top": 709
    },
    {
      "bottom": 745,
      "id": 32,
      "left": 360,
      "right": 467,
      "text": "улица",
      "top": 717
    },
    {
      "bottom": 743,
      "id": 33,
      "left": 482,
      "right": 680,
      "text": "Шеногина,",
      "top": 709
    },
    {
      "bottom": 738,
      "id": 34,
      "left": 701,
      "right": 757,
      "text": "дом",
      "top": 717
    },
    {
      "bottom": 743,
      "id": 35,
      "left": 771,
      "right": 799,
      "text": "3,",
      "top": 708
    },
    {
      "bottom": 745,
      "id": 36,
      "left": 812,
      "right": 971,
      "text": "сгроение",
      "top": 717
    },
    {
      "bottom": 736,
      "id": 37,
      "left": 985,
      "right": 1002,
      "text": "2",
      "top": 709
    },
    {
      "bottom": 810,
      "id": 38,
      "left": 79,
      "right": 279,
      "text": "Помешение",
      "top": 780
    },
    {
      "bottom": 808,
      "id": 39,
      "left": 293,
      "right": 331,
      "text": "№",
      "top": 780
    },
    {
      "bottom": 807,
      "id": 40,
      "left": 346,
      "right": 355,
      "text": "Г",
      "top": 780
    },
    {
      "bottom": 807,
      "id": 41,
      "left": 369,
      "right": 434,
      "text": "Тии:",
      "top": 780
    },
    {
      "bottom": 807,
      "id": 42,
      "left": 463,
      "right": 614,
      "text": "Нежилое",
      "top": 780
    },
    {
      "bottom": 877,
      "id": 43,
      "left": 147,
      "right": 353,
      "text": "Свзедениями",
      "top": 847
    },
    {
      "bottom": 874,
      "id": 44,
      "left": 368,
      "right": 386,
      "text": "о",
      "top": 855
    },
    {
      "bottom": 877,
      "id": 45,
      "left": 399,
      "right": 607,
      "text": "соб.подении",
      "top": 855
    },
    {
      "bottom": 883,
      "id": 46,
      "left": 627,
      "right": 817,
      "text": "требований",
      "top": 847
    },
    {
      "bottom": 883,
      "id": 47,
      "left": 833,
      "right": 948,
      "text": "пункта",
      "top": 855
    },
    {
      "bottom": 874,
      "id": 48,
      "left": 961,
      "right": 979,
      "text": "4",
      "top": 847
    },
    {
      "bottom": 874,
      "id": 49,
      "left": 994,
      "right": 1083,
      "text": "части",
      "top": 856
    },
    {
      "bottom": 874,
      "id": 50,
      "left": 1103,
      "right": 1135,
      "text": "17",
      "top": 847
    },
    {
      "bottom": 875,
      "id": 51,
      "left": 1149,
      "right": 1256,
      "text": "статьи",
      "top": 855
    },
    {
      "bottom": 874,
      "id": 52,
      "left": 1271,
      "right": 1302,
      "text": "5]",
      "top": 847
    },
    {
      "bottom": 883,
      "id": 53,
      "left": 1323,
      "right": 1673,
      "text": "Градостроительного",
      "top": 847
    },
    {
      "bottom": 877,
      "id": 54,
      "left": 1687,
      "right": 1817,
      "text": "кодекса",
      "top": 855
    },
    {
      "bottom": 921,
      "id": 55,
      "left": 148,
      "right": 343,
      "text": "Российской",
      "top": 894
    },
    {
      "bottom": 930,
      "id": 56,
      "left": 359,
      "right": 545,
      "text": "Федерации",
      "top": 894
    },
    {
      "bottom": 921,
      "id": 57,
      "left": 562,
      "right": 632,
      "text": "ГБУ",
      "top": 894
    },
    {
      "bottom": 930,
      "id": 58,
      "left": 648,
      "right": 851,
      "text": "МосгорБТИ",
      "top": 894
    },
    {
      "bottom": 921,
      "id": 59,
      "left": 866,
      "right": 902,
      "text": "ve",
      "top": 903
    },
    {
      "bottom": 930,
      "id": 60,
      "left": 915,
      "right": 1115,
      "text": "располагает",
      "top": 902
    },
    {
      "bottom": 927,
      "id": 61,
      "left": 1133,
      "right": 1324,
      "text": "(ком.12.13)",
      "top": 894
    },
    {
      "bottom": 1032,
      "id": 62,
      "left": 1536,
      "right": 1690,
      "text": "Площаль",
      "top": 1002
    },
    {
      "bottom": 1031,
      "id": 63,
      "left": 1703,
      "right": 1898,
      "text": "помещений",
      "top": 1002
    },
    {
      "bottom": 1079,
      "id": 64,
      "left": 988,
      "right": 1142,
      "text": "Плошаль",
      "top": 1049
    },
    {
      "bottom": 1078,
      "id": 65,
      "left": 1154,
      "right": 1258,
      "text": "общая.",
      "top": 1057
    },
    {
      "bottom": 1076,
      "id": 66,
      "left": 1284,
      "right": 1353,
      "text": "кв.м",
      "top": 1058
    },
    {
      "bottom": 1076,
      "id": 67,
      "left": 1562,
      "right": 1873,
      "text": "вспомогательного",
      "top": 1057
    },
    {
      "bottom": 1103,
      "id": 68,
      "left": 2144,
      "right": 2354,
      "text": "Примечание",
      "top": 1067
    },
    {
      "bottom": 1123,
      "id": 69,
      "left": 1459,
      "right": 1709,
      "text": "использования",
      "top": 1104
    },
    {
      "bottom": 1127,
      "id": 70,
      "left": 1725,
      "right": 1753,
      "text": "(с",
      "top": 1097
    },
    {
      "bottom": 1132,
      "id": 71,
      "left": 1767,
      "right": 1871,
      "text": "коэф.)",
      "top": 1095
    },
    {
      "bottom": 1123,
      "id": 72,
      "left": 1894,
      "right": 1930,
      "text": "кв.",
      "top": 1105
    },
    {
      "bottom": 1123,
      "id": 73,
      "left": 1955,
      "right": 1974,
      "text": "м",
      "top": 1105
    },
    {
      "bottom": 1120,
      "id": 74,
      "left": 2023,
      "right": 2071,
      "text": "Вы",
      "top": 1093
    },
    {
      "bottom": 1153,
      "id": 75,
      "left": 563,
      "right": 839,
      "text": "Характеристики",
      "top": 1117
    },
    {
      "bottom": 1168,
      "id": 76,
      "left": 118,
      "right": 196,
      "text": "Jraxk",
      "top": 1140
    },
    {
      "bottom": 1167,
      "id": 77,
      "left": 259,
      "right": 328,
      "text": "№№",
      "top": 1140
    },
    {
      "bottom": 1167,
      "id": 78,
      "left": 342,
      "right": 457,
      "text": "комнат",
      "top": 1148
    },
    {
      "bottom": 1167,
      "id": 79,
      "left": 2013,
      "right": 2083,
      "text": "cola",
      "top": 1148
    },
    {
      "bottom": 1190,
      "id": 80,
      "left": 521,
      "right": 636,
      "text": "комнат",
      "top": 1171
    },
    {
      "bottom": 1190,
      "id": 81,
      "left": 655,
      "right": 671,
      "text": "и",
      "top": 1172
    },
    {
      "bottom": 1192,
      "id": 82,
      "left": 687,
      "right": 881,
      "text": "помещений",
      "top": 1171
    },
    {
      "bottom": 1187,
      "id": 83,
      "left": 1153,
      "right": 1169,
      "text": "в",
      "top": 1169
    },
    {
      "bottom": 1187,
      "id": 84,
      "left": 1187,
      "right": 1241,
      "text": "том",
      "top": 1168
    },
    {
      "bottom": 1187,
      "id": 85,
      "left": 1257,
      "right": 1351,
      "text": "числе",
      "top": 1168
    },
    {
      "bottom": 1187,
      "id": 86,
      "left": 1618,
      "right": 1634,
      "text": "в",
      "top": 1169
    },
    {
      "bottom": 1187,
      "id": 87,
      "left": 1652,
      "right": 1706,
      "text": "том",
      "top": 1168
    },
    {
      "bottom": 1187,
      "id": 88,
      "left": 1723,
      "right": 1816,
      "text": "числе",
      "top": 1168
    },
    {
      "bottom": 1214,
      "id": 89,
      "left": 2028,
      "right": 2043,
      "text": "с",
      "top": 1195
    },
    {
      "bottom": 1214,
      "id": 90,
      "left": 2048,
      "right": 2067,
      "text": "M",
      "top": 1196
    },
    {
      "bottom": 1244,
      "id": 91,
      "left": 946,
      "right": 1042,
      "text": "Всего",
      "top": 1217
    },
    {
      "bottom": 1245,
      "id": 92,
      "left": 2208,
      "right": 2287,
      "text": "Дата",
      "top": 1211
    },
    {
      "bottom": 1278,
      "id": 93,
      "left": 1096,
      "right": 1213,
      "text": "OCHOBH",
      "top": 1259
    },
    {
      "bottom": 1278,
      "id": 94,
      "left": 1288,
      "right": 1387,
      "text": "BCHOM",
      "top": 1259
    },
    {
      "bottom": 1281,
      "id": 95,
      "left": 1457,
      "right": 1574,
      "text": "оджий",
      "top": 1259
    },
    {
      "bottom": 1278,
      "id": 96,
      "left": 1600,
      "right": 1757,
      "text": "балконов",
      "top": 1259
    },
    {
      "bottom": 1287,
      "id": 97,
      "left": 1824,
      "right": 1945,
      "text": "прочих",
      "top": 1259
    },
    {
      "bottom": 1287,
      "id": 98,
      "left": 2130,
      "right": 2363,
      "text": "обследования",
      "top": 1265
    },
    {
      "bottom": 1368,
      "id": 99,
      "left": 1012,
      "right": 1055,
      "text": "22",
      "top": 1359
    },
    {
      "bottom": 1368,
      "id": 100,
      "left": 1378,
      "right": 1421,
      "text": "22",
      "top": 1359
    },
    {
      "bottom": 1372,
      "id": 101,
      "left": 2138,
      "right": 2242,
      "text": "чрежд",
      "top": 1344
    },
    {
      "bottom": 1386,
      "id": 102,
      "left": 95,
      "right": 210,
      "text": "подвал",
      "top": 1367
    },
    {
      "bottom": 1386,
      "id": 103,
      "left": 244,
      "right": 250,
      "text": "]",
      "top": 1359
    },
    {
      "bottom": 1396,
      "id": 104,
      "left": 498,
      "right": 647,
      "text": "кладовая",
      "top": 1355
    },
    {
      "bottom": 1396,
      "id": 105,
      "left": 1017,
      "right": 1057,
      "text": "3.3",
      "top": 1355
    },
    {
      "bottom": 1396,
      "id": 106,
      "left": 1383,
      "right": 1423,
      "text": "3.3",
      "top": 1355
    },
    {
      "bottom": 1386,
      "id": 107,
      "left": 2024,
      "right": 2082,
      "text": "229",
      "top": 1359
    },
    {
      "bottom": 1372,
      "id": 108,
      "left": 2116,
      "right": 2133,
      "text": "у",
      "top": 1345
    },
    {
      "bottom": 1389,
      "id": 109,
      "left": 147,
      "right": 155,
      "text": "‘",
      "top": 1368
    },
    {
      "bottom": 1389,
      "id": 110,
      "left": 504,
      "right": 574,
      "text": "ки",
      "top": 1368
    },
    {
      "bottom": 1410,
      "id": 111,
      "left": 2116,
      "right": 2297,
      "text": "28.09.2010",
      "top": 1383
    },
    {
      "bottom": 1410,
      "id": 112,
      "left": 2310,
      "right": 2315,
      "text": "1",
      "top": 1392
    },
    {
      "bottom": 1475,
      "id": 113,
      "left": 2138,
      "right": 2242,
      "text": "чрежд",
      "top": 1447
    },
    {
      "bottom": 1490,
      "id": 114,
      "left": 239,
      "right": 256,
      "text": "2",
      "top": 1463
    },
    {
      "bottom": 1492,
      "id": 115,
      "left": 508,
      "right": 651,
      "text": "естиина",
      "top": 1471
    },
    {
      "bottom": 1503,
      "id": 116,
      "left": 996,
      "right": 1058,
      "text": "14.2",
      "top": 1445
    },
    {
      "bottom": 1503,
      "id": 117,
      "left": 1361,
      "right": 1424,
      "text": "14.2",
      "top": 1445
    },
    {
      "bottom": 1490,
      "id": 118,
      "left": 2024,
      "right": 2082,
      "text": "229",
      "top": 1463
    },
    {
      "bottom": 1475,
      "id": 119,
      "left": 2116,
      "right": 2133,
      "text": "У",
      "top": 1448
    },
    {
      "bottom": 1513,
      "id": 120,
      "left": 2116,
      "right": 2315,
      "text": "28.09.20101",
      "top": 1486
    },
    {
      "bottom": 1575,
      "id": 121,
      "left": 242,
      "right": 254,
      "text": "2",
      "top": 1566
    },
    {
      "bottom": 1575,
      "id": 122,
      "left": 1012,
      "right": 1055,
      "text": "22",
      "top": 1566
    },
    {
      "bottom": 1575,
      "id": 123,
      "left": 1378,
      "right": 1421,
      "text": "22",
      "top": 1566
    },
    {
      "bottom": 1579,
      "id": 124,
      "left": 2116,
      "right": 2242,
      "text": "учрежд",
      "top": 1551
    },
    {
      "bottom": 1593,
      "id": 125,
      "left": 245,
      "right": 255,
      "text": "3",
      "top": 1576
    },
    {
      "bottom": 1596,
      "id": 126,
      "left": 498,
      "right": 638,
      "text": "коридор",
      "top": 1574
    },
    {
      "bottom": 1593,
      "id": 127,
      "left": 1017,
      "right": 1057,
      "text": "3.3",
      "top": 1576
    },
    {
      "bottom": 1593,
      "id": 128,
      "left": 1383,
      "right": 1423,
      "text": "3.3",
      "top": 1576
    },
    {
      "bottom": 1593,
      "id": 129,
      "left": 2024,
      "right": 2082,
      "text": "229",
      "top": 1566
    },
    {
      "bottom": 1602,
      "id": 130,
      "left": 504,
      "right": 626,
      "text": "Корило",
      "top": 1575
    },
    {
      "bottom": 1617,
      "id": 131,
      "left": 2116,
      "right": 2315,
      "text": "28.09.2010",
      "top": 1590
    },
    {
      "bottom": 1630,
      "id": 132,
      "left": 2300,
      "right": 2315,
      "text": "1",
      "top": 1572
    },
    {
      "bottom": 1682,
      "id": 133,
      "left": 2138,
      "right": 2242,
      "text": "чрежд",
      "top": 1654
    },
    {
      "bottom": 1697,
      "id": 134,
      "left": 239,
      "right": 257,
      "text": "4",
      "top": 1670
    },
    {
      "bottom": 1697,
      "id": 135,
      "left": 498,
      "right": 638,
      "text": "коридор",
      "top": 1678
    },
    {
      "bottom": 1710,
      "id": 136,
      "left": 1011,
      "right": 1058,
      "text": "2.9",
      "top": 1651
    },
    {
      "bottom": 1710,
      "id": 137,
      "left": 1377,
      "right": 1424,
      "text": "2.9",
      "top": 1651
    },
    {
      "bottom": 1697,
      "id": 138,
      "left": 2024,
      "right": 2082,
      "text": "229",
      "top": 1670
    },
    {
      "bottom": 1682,
      "id": 139,
      "left": 2116,
      "right": 2133,
      "text": "У",
      "top": 1655
    },
    {
      "bottom": 1706,
      "id": 140,
      "left": 504,
      "right": 626,
      "text": "кори",
      "top": 1679
    },
    {
      "bottom": 1720,
      "id": 141,
      "left": 2116,
      "right": 2315,
      "text": "28.09.2010",
      "top": 1693
    },
    {
      "bottom": 1733,
      "id": 142,
      "left": 2302,
      "right": 2317,
      "text": "1",
      "top": 1676
    },
    {
      "bottom": 1786,
      "id": 143,
      "left": 2138,
      "right": 2242,
      "text": "чрежд",
      "top": 1758
    },
    {
      "bottom": 1800,
      "id": 144,
      "left": 240,
      "right": 255,
      "text": "5",
      "top": 1773
    },
    {
      "bottom": 1803,
      "id": 145,
      "left": 498,
      "right": 638,
      "text": "корилор",
      "top": 1781
    },
    {
      "bottom": 1800,
      "id": 146,
      "left": 1012,
      "right": 1058,
      "text": "9.9",
      "top": 1773
    },
    {
      "bottom": 1800,
      "id": 147,
      "left": 1378,
      "right": 1424,
      "text": "9.9",
      "top": 1773
    },
    {
      "bottom": 1800,
      "id": 148,
      "left": 2024,
      "right": 2082,
      "text": "229",
      "top": 1773
    },
    {
      "bottom": 1786,
      "id": 149,
      "left": 2116,
      "right": 2133,
      "text": "У",
      "top": 1759
    },
    {
      "bottom": 1809,
      "id": 150,
      "left": 504,
      "right": 626,
      "text": "Корило",
      "top": 1782
    },
    {
      "bottom": 1824,
      "id": 151,
      "left": 2116,
      "right": 2315,
      "text": "28.09.2010",
      "top": 1797
    },
    {
      "bottom": 1837,
      "id": 152,
      "left": 2300,
      "right": 2315,
      "text": "1",
      "top": 1779
    },
    {
      "bottom": 1890,
      "id": 153,
      "left": 2138,
      "right": 2242,
      "text": "чрежд",
      "top": 1862
    },
    {
      "bottom": 1904,
      "id": 154,
      "left": 240,
      "right": 257,
      "text": "6",
      "top": 1877
    },
    {
      "bottom": 1904,
      "id": 155,
      "left": 498,
      "right": 679,
      "text": "комната",
      "top": 1885
    },
    {
      "bottom": 1904,
      "id": 156,
      "left": 708,
      "right": 770,
      "text": "отдыха",
      "top": 1885
    },
    {
      "bottom": 1914,
      "id": 157,
      "left": 991,
      "right": 1058,
      "text": "20.7",
      "top": 1873
    },
    {
      "bottom": 1914,
      "id": 158,
      "left": 1356,
      "right": 1424,
      "text": "20,7",
      "top": 1873
    },
    {
      "bottom": 1904,
      "id": 159,
      "left": 2024,
      "right": 2082,
      "text": "229",
      "top": 1877
    },
    {
      "bottom": 1890,
      "id": 160,
      "left": 2116,
      "right": 2133,
      "text": "у",
      "top": 1863
    },
    {
      "bottom": 1904,
      "id": 161,
      "left": 504,
      "right": 628,
      "text": "комната",
      "top": 1891
    },
    {
      "bottom": 1940,
      "id": 162,
      "left": 649,
      "right": 689,
      "text": "OT",
      "top": 1882
    },
    {
      "bottom": 1907,
      "id": 163,
      "left": 697,
      "right": 763,
      "text": "VINE",
      "top": 1886
    },
    {
      "bottom": 1927,
      "id": 164,
      "left": 2116,
      "right": 2315,
      "text": "28.09.2010",
      "top": 1900
    },
    {
      "bottom": 1940,
      "id": 165,
      "left": 2302,
      "right": 2317,
      "text": "1",
      "top": 1883
    },
    {
      "bottom": 1993,
      "id": 166,
      "left": 2117,
      "right": 2231,
      "text": "прочая",
      "top": 1965
    },
    {
      "bottom": 2007,
      "id": 167,
      "left": 240,
      "right": 256,
      "text": "7",
      "top": 1980
    },
    {
      "bottom": 2007,
      "id": 168,
      "left": 498,
      "right": 613,
      "text": "прочее",
      "top": 1988
    },
    {
      "bottom": 2007,
      "id": 169,
      "left": 1011,
      "right": 1059,
      "text": "4.6",
      "top": 1980
    },
    {
      "bottom": 2007,
      "id": 170,
      "left": 1194,
      "right": 1243,
      "text": "4.6",
      "top": 1980
    },
    {
      "bottom": 2007,
      "id": 171,
      "left": 2024,
      "right": 2082,
      "text": "229",
      "top": 1980
    },
    {
      "bottom": 2016,
      "id": 172,
      "left": 519,
      "right": 525,
      "text": "1",
      "top": 1989
    },
    {
      "bottom": 2031,
      "id": 173,
      "left": 2116,
      "right": 2297,
      "text": "28.09.2010",
      "top": 2004
    },
    {
      "bottom": 2031,
      "id": 174,
      "left": 2310,
      "right": 2315,
      "text": "1",
      "top": 2013
    },
    {
      "bottom": 2097,
      "id": 175,
      "left": 2138,
      "right": 2242,
      "text": "чрежд",
      "top": 2069
    },
    {
      "bottom": 2110,
      "id": 176,
      "left": 241,
      "right": 256,
      "text": "$",
      "top": 2084
    },
    {
      "bottom": 2111,
      "id": 177,
      "left": 498,
      "right": 679,
      "text": "служебное",
      "top": 2092
    },
    {
      "bottom": 2111,
      "id": 178,
      "left": 996,
      "right": 1058,
      "text": "12.2",
      "top": 2084
    },
    {
      "bottom": 2111,
      "id": 179,
      "left": 1179,
      "right": 1242,
      "text": "12,2",
      "top": 2084
    },
    {
      "bottom": 2111,
      "id": 180,
      "left": 2024,
      "right": 2082,
      "text": "229",
      "top": 2084
    },
    {
      "bottom": 2097,
      "id": 181,
      "left": 2116,
      "right": 2133,
      "text": "У",
      "top": 2070
    },
    {
      "bottom": 2120,
      "id": 182,
      "left": 535,
      "right": 552,
      "text": "y",
      "top": 2093
    },
    {
      "bottom": 2134,
      "id": 183,
      "left": 2116,
      "right": 2315,
      "text": "28.09.20101",
      "top": 2107
    },
    {
      "bottom": 2200,
      "id": 184,
      "left": 2138,
      "right": 2242,
      "text": "чрежд",
      "top": 2172
    },
    {
      "bottom": 2214,
      "id": 185,
      "left": 240,
      "right": 256,
      "text": "9",
      "top": 2187
    },
    {
      "bottom": 2214,
      "id": 186,
      "left": 498,
      "right": 679,
      "text": "служебное",
      "top": 2195
    },
    {
      "bottom": 2214,
      "id": 187,
      "left": 1012,
      "right": 1059,
      "text": "7.4",
      "top": 2187
    },
    {
      "bottom": 2214,
      "id": 188,
      "left": 1195,
      "right": 1243,
      "text": "7.4",
      "top": 2187
    },
    {
      "bottom": 2214,
      "id": 189,
      "left": 2024,
      "right": 2082,
      "text": "229",
      "top": 2187
    },
    {
      "bottom": 2200,
      "id": 190,
      "left": 2116,
      "right": 2133,
      "text": "У",
      "top": 2173
    },
    {
      "bottom": 2223,
      "id": 191,
      "left": 535,
      "right": 552,
      "text": "У",
      "top": 2196
    },
    {
      "bottom": 2238,
      "id": 192,
      "left": 2116,
      "right": 2297,
      "text": "28.09.2010",
      "top": 2211
    },
    {
      "bottom": 2238,
      "id": 193,
      "left": 2310,
      "right": 2315,
      "text": "1",
      "top": 2220
    },
    {
      "bottom": 2304,
      "id": 194,
      "left": 2138,
      "right": 2242,
      "text": "чрежд",
      "top": 2276
    },
    {
      "bottom": 2318,
      "id": 195,
      "left": 244,
      "right": 277,
      "text": "10",
      "top": 2291
    },
    {
      "bottom": 2318,
      "id": 196,
      "left": 498,
      "right": 679,
      "text": "служебное",
      "top": 2299
    },
    {
      "bottom": 2318,
      "id": 197,
      "left": 1013,
      "right": 1057,
      "text": "8.3",
      "top": 2291
    },
    {
      "bottom": 2318,
      "id": 198,
      "left": 1196,
      "right": 1241,
      "text": "8.3",
      "top": 2291
    },
    {
      "bottom": 2318,
      "id": 199,
      "left": 2024,
      "right": 2082,
      "text": "229",
      "top": 2291
    },
    {
      "bottom": 2304,
      "id": 200,
      "left": 2116,
      "right": 2133,
      "text": "У",
      "top": 2277
    },
    {
      "bottom": 2327,
      "id": 201,
      "left": 535,
      "right": 552,
      "text": "у",
      "top": 2300
    },
    {
      "bottom": 2341,
      "id": 202,
      "left": 2116,
      "right": 2315,
      "text": "28.09.20101",
      "top": 2314
    },
    {
      "bottom": 2407,
      "id": 203,
      "left": 2138,
      "right": 2242,
      "text": "чрежд",
      "top": 2379
    },
    {
      "bottom": 2421,
      "id": 204,
      "left": 244,
      "right": 270,
      "text": "1]",
      "top": 2394
    },
    {
      "bottom": 2424,
      "id": 205,
      "left": 498,
      "right": 638,
      "text": "коридор",
      "top": 2402
    },
    {
      "bottom": 2431,
      "id": 206,
      "left": 1017,
      "right": 1059,
      "text": "3.6",
      "top": 2390
    },
    {
      "bottom": 2431,
      "id": 207,
      "left": 1383,
      "right": 1425,
      "text": "3.6",
      "top": 2390
    },
    {
      "bottom": 2421,
      "id": 208,
      "left": 2024,
      "right": 2082,
      "text": "229",
      "top": 2394
    },
    {
      "bottom": 2407,
      "id": 209,
      "left": 2116,
      "right": 2133,
      "text": "У",
      "top": 2380
    },
    {
      "bottom": 2430,
      "id": 210,
      "left": 504,
      "right": 626,
      "text": "Корило",
      "top": 2403
    },
    {
      "bottom": 2445,
      "id": 211,
      "left": 2116,
      "right": 2315,
      "text": "28.09.2010",
      "top": 2418
    },
    {
      "bottom": 2458,
      "id": 212,
      "left": 2300,
      "right": 2315,
      "text": "1",
      "top": 2400
    },
    {
      "bottom": 2511,
      "id": 213,
      "left": 2138,
      "right": 2242,
      "text": "чрежд",
      "top": 2483
    },
    {
      "bottom": 2525,
      "id": 214,
      "left": 244,
      "right": 276,
      "text": "12",
      "top": 2498
    },
    {
      "bottom": 2525,
      "id": 215,
      "left": 498,
      "right": 647,
      "text": "кладовая",
      "top": 2506
    },
    {
      "bottom": 2538,
      "id": 216,
      "left": 1013,
      "right": 1059,
      "text": "8.6",
      "top": 2480
    },
    {
      "bottom": 2538,
      "id": 217,
      "left": 1379,
      "right": 1425,
      "text": "8.6",
      "top": 2480
    },
    {
      "bottom": 2525,
      "id": 218,
      "left": 2024,
      "right": 2082,
      "text": "229",
      "top": 2498
    },
    {
      "bottom": 2511,
      "id": 219,
      "left": 2116,
      "right": 2133,
      "text": "У",
      "top": 2484
    },
    {
      "bottom": 2525,
      "id": 220,
      "left": 504,
      "right": 513,
      "text": "SHA",
      "top": 2512
    },
    {
      "bottom": 2525,
      "id": 221,
      "left": 616,
      "right": 622,
      "text": "TORE",
      "top": 2515
    },
    {
      "bottom": 2548,
      "id": 222,
      "left": 2116,
      "right": 2315,
      "text": "28.09.2010",
      "top": 2521
    },
    {
      "bottom": 2561,
      "id": 223,
      "left": 2302,
      "right": 2317,
      "text": "1",
      "top": 2504
    },
    {
      "bottom": 2614,
      "id": 224,
      "left": 2138,
      "right": 2242,
      "text": "чрежд",
      "top": 2586
    },
    {
      "bottom": 2629,
      "id": 225,
      "left": 244,
      "right": 275,
      "text": "13",
      "top": 2602
    },
    {
      "bottom": 2629,
      "id": 226,
      "left": 499,
      "right": 684,
      "text": "мастерская",
      "top": 2610
    },
    {
      "bottom": 2639,
      "id": 227,
      "left": 1013,
      "right": 1058,
      "text": "8.2",
      "top": 2598
    },
    {
      "bottom": 2639,
      "id": 228,
      "left": 1379,
      "right": 1424,
      "text": "8.2",
      "top": 2598
    },
    {
      "bottom": 2629,
      "id": 229,
      "left": 2024,
      "right": 2082,
      "text": "229",
      "top": 2602
    },
    {
      "bottom": 2614,
      "id": 230,
      "left": 2116,
      "right": 2133,
      "text": "у",
      "top": 2587
    },
    {
      "bottom": 2638,
      "id": 231,
      "left": 594,
      "right": 649,
      "text": "рек",
      "top": 2611
    },
    {
      "bottom": 2652,
      "id": 232,
      "left": 2116,
      "right": 2297,
      "text": "28.09.2010",
      "top": 2625
    },
    {
      "bottom": 2652,
      "id": 233,
      "left": 2310,
      "right": 2315,
      "text": "1",
      "top": 2634
    },
    {
      "bottom": 2718,
      "id": 234,
      "left": 2138,
      "right": 2242,
      "text": "чрежд",
      "top": 2690
    },
    {
      "bottom": 2732,
      "id": 235,
      "left": 244,
      "right": 277,
      "text": "14",
      "top": 2705
    },
    {
      "bottom": 2732,
      "id": 236,
      "left": 539,
      "right": 638,
      "text": "шевая",
      "top": 2714
    },
    {
      "bottom": 2732,
      "id": 237,
      "left": 1012,
      "right": 1058,
      "text": "7.5",
      "top": 2705
    },
    {
      "bottom": 2732,
      "id": 238,
      "left": 1378,
      "right": 1424,
      "text": "7.5",
      "top": 2705
    },
    {
      "bottom": 2732,
      "id": 239,
      "left": 2024,
      "right": 2082,
      "text": "229",
      "top": 2705
    },
    {
      "bottom": 2718,
      "id": 240,
      "left": 2116,
      "right": 2133,
      "text": "У",
      "top": 2691
    },
    {
      "bottom": 2741,
      "id": 241,
      "left": 508,
      "right": 535,
      "text": "ly",
      "top": 2714
    },
    {
      "bottom": 2755,
      "id": 242,
      "left": 2116,
      "right": 2315,
      "text": "28.09.20101",
      "top": 2728
    },
    {
      "bottom": 2821,
      "id": 243,
      "left": 2138,
      "right": 2242,
      "text": "чрежд",
      "top": 2793
    },
    {
      "bottom": 2836,
      "id": 244,
      "left": 244,
      "right": 275,
      "text": "15",
      "top": 2809
    },
    {
      "bottom": 2836,
      "id": 245,
      "left": 498,
      "right": 638,
      "text": "коридор",
      "top": 2817
    },
    {
      "bottom": 2836,
      "id": 246,
      "left": 996,
      "right": 1058,
      "text": "11$",
      "top": 2809
    },
    {
      "bottom": 2836,
      "id": 247,
      "left": 1361,
      "right": 1424,
      "text": "11$",
      "top": 2809
    },
    {
      "bottom": 2836,
      "id": 248,
      "left": 2024,
      "right": 2082,
      "text": "229",
      "top": 2809
    },
    {
      "bottom": 2821,
      "id": 249,
      "left": 2116,
      "right": 2133,
      "text": "У",
      "top": 2794
    },
    {
      "bottom": 2845,
      "id": 250,
      "left": 504,
      "right": 626,
      "text": "кори",
      "top": 2818
    },
    {
      "bottom": 2859,
      "id": 251,
      "left": 2116,
      "right": 2315,
      "text": "28.09.2010",
      "top": 2832
    },
    {
      "bottom": 2872,
      "id": 252,
      "left": 2302,
      "right": 2317,
      "text": "1",
      "top": 2815
    },
    {
      "bottom": 2925,
      "id": 253,
      "left": 2138,
      "right": 2242,
      "text": "чрежд",
      "top": 2897
    },
    {
      "bottom": 2938,
      "id": 254,
      "left": 260,
      "right": 272,
      "text": "6",
      "top": 2912
    },
    {
      "bottom": 2938,
      "id": 255,
      "left": 1013,
      "right": 1028,
      "text": "8",
      "top": 2912
    },
    {
      "bottom": 2938,
      "id": 256,
      "left": 1379,
      "right": 1394,
      "text": "$",
      "top": 2912
    },
    {
      "bottom": 2939,
      "id": 257,
      "left": 2024,
      "right": 2075,
      "text": "229",
      "top": 2912
    },
    {
      "bottom": 2925,
      "id": 258,
      "left": 2116,
      "right": 2133,
      "text": "У",
      "top": 2898
    },
    {
      "bottom": 2939,
      "id": 259,
      "left": 244,
      "right": 277,
      "text": "16",
      "top": 2912
    },
    {
      "bottom": 2948,
      "id": 260,
      "left": 508,
      "right": 638,
      "text": "душевая",
      "top": 2921
    },
    {
      "bottom": 2939,
      "id": 261,
      "left": 1013,
      "right": 1059,
      "text": "8.4",
      "top": 2912
    },
    {
      "bottom": 2939,
      "id": 262,
      "left": 1379,
      "right": 1425,
      "text": "8.4",
      "top": 2912
    },
    {
      "bottom": 2939,
      "id": 263,
      "left": 2070,
      "right": 2082,
      "text": "у",
      "top": 2913
    },
    {
      "bottom": 2962,
      "id": 264,
      "left": 2116,
      "right": 2153,
      "text": "58",
      "top": 2935
    },
    {
      "bottom": 2962,
      "id": 265,
      "left": 2168,
      "right": 2204,
      "text": "09",
      "top": 2935
    },
    {
      "bottom": 2962,
      "id": 266,
      "left": 2218,
      "right": 2315,
      "text": "2010",
      "top": 2935
    },
    {
      "bottom": 3028,
      "id": 267,
      "left": 2117,
      "right": 2231,
      "text": "прочая",
      "top": 3000
    },
    {
      "bottom": 3043,
      "id": 268,
      "left": 244,
      "right": 276,
      "text": "17",
      "top": 3016
    },
    {
      "bottom": 3043,
      "id": 269,
      "left": 505,
      "right": 773,
      "text": "электрощитовая",
      "top": 3024
    },
    {
      "bottom": 3043,
      "id": 270,
      "left": 1012,
      "right": 1059,
      "text": "6.0",
      "top": 3016
    },
    {
      "bottom": 3043,
      "id": 271,
      "left": 1195,
      "right": 1243,
      "text": "6.0",
      "top": 3016
    },
    {
      "bottom": 3043,
      "id": 272,
      "left": 2024,
      "right": 2082,
      "text": "229",
      "top": 3016
    },
    {
      "bottom": 3052,
      "id": 273,
      "left": 560,
      "right": 660,
      "text": "ирош",
      "top": 3025
    },
    {
      "bottom": 3066,
      "id": 274,
      "left": 2116,
      "right": 2315,
      "text": "28.09.2010",
      "top": 3039
    },
    {
      "bottom": 3079,
      "id": 275,
      "left": 2302,
      "right": 2317,
      "text": "1",
      "top": 3022
    },
    {
      "bottom": 3132,
      "id": 276,
      "left": 2138,
      "right": 2242,
      "text": "чрежд",
      "top": 3104
    },
    {
      "bottom": 3146,
      "id": 277,
      "left": 244,
      "right": 276,
      "text": "18",
      "top": 3119
    },
    {
      "bottom": 3146,
      "id": 278,
      "left": 498,
      "right": 638,
      "text": "корилор",
      "top": 3127
    },
    {
      "bottom": 3146,
      "id": 279,
      "left": 1012,
      "right": 1057,
      "text": "5.3",
      "top": 3119
    },
    {
      "bottom": 3146,
      "id": 280,
      "left": 1378,
      "right": 1423,
      "text": "5.3",
      "top": 3119
    },
    {
      "bottom": 3146,
      "id": 281,
      "left": 2024,
      "right": 2082,
      "text": "229",
      "top": 3119
    },
    {
      "bottom": 3132,
      "id": 282,
      "left": 2116,
      "right": 2133,
      "text": "У",
      "top": 3105
    },
    {
      "bottom": 3155,
      "id": 283,
      "left": 504,
      "right": 626,
      "text": "кори",
      "top": 3128
    },
    {
      "bottom": 3169,
      "id": 284,
      "left": 2116,
      "right": 2315,
      "text": "28.09.2010",
      "top": 3142
    },
    {
      "bottom": 3182,
      "id": 285,
      "left": 2302,
      "right": 2317,
      "text": "1",
      "top": 3125
    },
    {
      "bottom": 3235,
      "id": 286,
      "left": 2117,
      "right": 2231,
      "text": "прочая",
      "top": 3207
    },
    {
      "bottom": 3250,
      "id": 287,
      "left": 244,
      "right": 276,
      "text": "19",
      "top": 3223
    },
    {
      "bottom": 3250,
      "id": 288,
      "left": 498,
      "right": 672,
      "text": "бойлерная",
      "top": 3231
    },
    {
      "bottom": 3250,
      "id": 289,
      "left": 1013,
      "right": 1058,
      "text": "8.2",
      "top": 3223
    },
    {
      "bottom": 3250,
      "id": 290,
      "left": 1196,
      "right": 1242,
      "text": "8.2",
      "top": 3223
    },
    {
      "bottom": 3250,
      "id": 291,
      "left": 2024,
      "right": 2083,
      "text": "266",
      "top": 3223
    },
    {
      "bottom": 3259,
      "id": 292,
      "left": 598,
      "right": 604,
      "text": "1",
      "top": 3232
    },
    {
      "bottom": 3273,
      "id": 293,
      "left": 2116,
      "right": 2297,
      "text": "28.09.2010",
      "top": 3246
    },
    {
      "bottom": 3273,
      "id": 294,
      "left": 2310,
      "right": 2315,
      "text": "1",
      "top": 3255
    }
  ],
  "height": 3505,
  "width": 2480
}
